…
``` r
  transit_df = janitor::clean_names(transit_df)
```

``` r
select(transit_df, line, station_name, station_latitude, station_longitude, starts_with("route"), entry, vending, entrance_type, ada) |>
  mutate(entry = case_match(entry, 
                            "YES" ~ TRUE, 
                            "NO" ~ FALSE, 
                            .default = NA))
```

    ## # A tibble: 1,868 × 19
    ##    line     station_name station_latitude station_longitude route1 route2 route3
    ##    <chr>    <chr>                   <dbl>             <dbl> <chr>  <chr>  <chr> 
    ##  1 4 Avenue 25th St                  40.7             -74.0 R      <NA>   <NA>  
    ##  2 4 Avenue 25th St                  40.7             -74.0 R      <NA>   <NA>  
    ##  3 4 Avenue 36th St                  40.7             -74.0 N      R      <NA>  
    ##  4 4 Avenue 36th St                  40.7             -74.0 N      R      <NA>  
    ##  5 4 Avenue 36th St                  40.7             -74.0 N      R      <NA>  
    ##  6 4 Avenue 45th St                  40.6             -74.0 R      <NA>   <NA>  
    ##  7 4 Avenue 45th St                  40.6             -74.0 R      <NA>   <NA>  
    ##  8 4 Avenue 45th St                  40.6             -74.0 R      <NA>   <NA>  
    ##  9 4 Avenue 45th St                  40.6             -74.0 R      <NA>   <NA>  
    ## 10 4 Avenue 53rd St                  40.6             -74.0 R      <NA>   <NA>  
    ## # ℹ 1,858 more rows
    ## # ℹ 12 more variables: route4 <chr>, route5 <chr>, route6 <chr>, route7 <chr>,
    ## #   route8 <dbl>, route9 <dbl>, route10 <dbl>, route11 <dbl>, entry <lgl>,
    ## #   vending <chr>, entrance_type <chr>, ada <lgl>

``` r
select(transit_df, -division, -exit_only, -staffing, -staff_hours, -ada_notes, -free_crossover, -north_south_street, -east_west_street, -corner, -entrance_latitude, -entrance_longitude, -station_location,-entrance_location)
```

    ## # A tibble: 1,868 × 19
    ##    line     station_name station_latitude station_longitude route1 route2 route3
    ##    <chr>    <chr>                   <dbl>             <dbl> <chr>  <chr>  <chr> 
    ##  1 4 Avenue 25th St                  40.7             -74.0 R      <NA>   <NA>  
    ##  2 4 Avenue 25th St                  40.7             -74.0 R      <NA>   <NA>  
    ##  3 4 Avenue 36th St                  40.7             -74.0 N      R      <NA>  
    ##  4 4 Avenue 36th St                  40.7             -74.0 N      R      <NA>  
    ##  5 4 Avenue 36th St                  40.7             -74.0 N      R      <NA>  
    ##  6 4 Avenue 45th St                  40.6             -74.0 R      <NA>   <NA>  
    ##  7 4 Avenue 45th St                  40.6             -74.0 R      <NA>   <NA>  
    ##  8 4 Avenue 45th St                  40.6             -74.0 R      <NA>   <NA>  
    ##  9 4 Avenue 45th St                  40.6             -74.0 R      <NA>   <NA>  
    ## 10 4 Avenue 53rd St                  40.6             -74.0 R      <NA>   <NA>  
    ## # ℹ 1,858 more rows
    ## # ℹ 12 more variables: route4 <chr>, route5 <chr>, route6 <chr>, route7 <chr>,
    ## #   route8 <dbl>, route9 <dbl>, route10 <dbl>, route11 <dbl>,
    ## #   entrance_type <chr>, entry <chr>, vending <chr>, ada <lgl>
…
transit_pivot = pivot_longer(
  transit_df, 
  cols = starts_with("route"),
  names_to = "route_number", 
  values_to = "route_name", 
  names_prefix = "route"
)

print(transit_pivot)
```

    ## # A tibble: 20,548 × 23
    ##    Division Line     `Station Name` `Station Latitude` `Station Longitude`
    ##    <chr>    <chr>    <chr>                       <dbl>               <dbl>
    ##  1 BMT      4 Avenue 25th St                      40.7               -74.0
    ##  2 BMT      4 Avenue 25th St                      40.7               -74.0
    ##  3 BMT      4 Avenue 25th St                      40.7               -74.0
    ##  4 BMT      4 Avenue 25th St                      40.7               -74.0
    ##  5 BMT      4 Avenue 25th St                      40.7               -74.0
    ##  6 BMT      4 Avenue 25th St                      40.7               -74.0
    ##  7 BMT      4 Avenue 25th St                      40.7               -74.0
    ##  8 BMT      4 Avenue 25th St                      40.7               -74.0
    ##  9 BMT      4 Avenue 25th St                      40.7               -74.0
    ## 10 BMT      4 Avenue 25th St                      40.7               -74.0
    ## # ℹ 20,538 more rows
    ## # ℹ 18 more variables: `Entrance Type` <chr>, Entry <chr>, `Exit Only` <chr>,
    ## #   Vending <chr>, Staffing <chr>, `Staff Hours` <chr>, ADA <lgl>,
    ## #   `ADA Notes` <chr>, `Free Crossover` <lgl>, `North South Street` <chr>,
    ## #   `East West Street` <chr>, Corner <chr>, `Entrance Latitude` <dbl>,
    ## #   `Entrance Longitude` <dbl>, `Station Location` <chr>,
    ## #   `Entrance Location` <chr>, route_number <chr>, route_name <chr>
